sim/sim_debug_full.txt
** Warning: (vlib-34) Library already exists at "work".
Model Technology ModelSim - Intel FPGA Edition vlog 2020.1 Compiler 2020.02 Feb 28 2020
Start time: 00:25:07 on Nov 22,2025
vlog -incr -work work -sv C:\Users\waric\Documents\gpu\rtl\config.sv C:\Users\waric\Documents\gpu\rtl\dma.sv C:\Users\waric\Documents\gpu\rtl\mem_model.sv C:\Users\waric\Documents\gpu\rtl\mmu.sv C:\Users\waric\Documents\gpu\rtl\top.sv C:\Users\waric\Documents\gpu\sim\tb_top.sv 
-- Skipping package config_pkg
-- Compiling module dma
-- Skipping module mem_model
-- Skipping module mmu
-- Skipping module top
-- Skipping module tb_top

Top level modules:
	tb_top
End time: 00:25:07 on Nov 22,2025, Elapsed time: 0:00:00
Errors: 0, Warnings: 0
Reading pref.tcl

# 2020.1

# vsim -c -onfinish exit work.tb_top -do "run -all; quit" 
# Start time: 00:25:08 on Nov 22,2025
# Loading sv_std.std
# Loading work.tb_top
# Loading work.top
# Loading work.mmu
# Loading work.config_pkg
# Loading work.mem_model
# Loading work.dma
# run -all
# TOP: cfg write SRC_LO=0x00001000 at 215000
# TOP: cfg write SRC_HI=0x00000000 at 235000
# TOP: cfg write DST_LO=0x00002000 at 255000
# TOP: cfg write DST_HI=0x00000000 at 275000
# TOP: cfg write LEN=0x00000010 at 295000
# TB: program start src=0x00001000 dst=0x00002000 words=16
# TOP: cfg write START=1 at 315000
# 325000: DMA sampled start=1 state=0 src_res=1 dst_res=1
# 325000: DMA IDLE saw start src_addr=0x00001000 dst_addr=0x00002000 len=16 desc_mode=x
# TOP: cfg write START=1 at 335000
# 335000: DMA BUSY state remain=16 fifo_count=0 read_index=1024 write_index=2048 fifo_head=0 fifo_tail=0
# 335000: DMA issue read addr=1024 pending_fifo_tail=0 remain=16
# 345000: MEM_MODEL read_en addr=1024 -> sampled=0x5a5a0000
# 345000: DMA sampled start=1 state=2 src_res=1 dst_res=1
# 345000: DMA BUSY state remain=16 fifo_count=1 read_index=1025 write_index=2049 fifo_head=0 fifo_tail=1
# 345000: DMA issue read addr=1025 pending_fifo_tail=1 remain=16
# 355000: MEM_MODEL read_en addr=1025 -> sampled=0x5a5a0001
# 355000: DMA BUSY state remain=16 fifo_count=2 read_index=1026 write_index=2050 fifo_head=0 fifo_tail=2
# 355000: DMA capture data=0x5a5a0000 for pending_write_addr=2048 (mem_read_valid)
# 355000: DMA write addr=2048 data=0x5a5a0000 remain=16 (using pending_write_fifo)
# 355000: DMA issue read addr=1026 pending_fifo_tail=2 remain=16
# 365000: MEM_MODEL write addr=2048 data=0x5a5a0000
# 365000: MEM_MODEL read_en addr=1026 -> sampled=0x5a5a0002
# 365000: DMA BUSY state remain=15 fifo_count=3 read_index=1027 write_index=2051 fifo_head=1 fifo_tail=3
# 365000: DMA capture data=0x5a5a0001 for pending_write_addr=2049 (mem_read_valid)
# 365000: DMA write addr=2049 data=0x5a5a0001 remain=15 (using pending_write_fifo)
# 365000: DMA issue read addr=1027 pending_fifo_tail=3 remain=15
# 375000: MEM_MODEL write addr=2049 data=0x5a5a0001
# 375000: MEM_MODEL read_en addr=1027 -> sampled=0x5a5a0003
# 375000: DMA BUSY state remain=14 fifo_count=4 read_index=1028 write_index=2052 fifo_head=2 fifo_tail=0
# 375000: DMA capture data=0x5a5a0002 for pending_write_addr=2050 (mem_read_valid)
# 375000: DMA write addr=2050 data=0x5a5a0002 remain=14 (using pending_write_fifo)
# 375000: DMA stall - FIFO full: remain=14 fifo_count=4
# 385000: MEM_MODEL write addr=2050 data=0x5a5a0002
# 385000: DMA BUSY state remain=13 fifo_count=3 read_index=1028 write_index=2052 fifo_head=3 fifo_tail=0
# 385000: DMA capture data=0x5a5a0003 for pending_write_addr=2051 (mem_read_valid)
# 385000: DMA write addr=2051 data=0x5a5a0003 remain=13 (using pending_write_fifo)
# 385000: DMA issue read addr=1028 pending_fifo_tail=0 remain=13
# 395000: MEM_MODEL write addr=2051 data=0x5a5a0003
# 395000: MEM_MODEL read_en addr=1028 -> sampled=0x5a5a0004
# 395000: DMA BUSY state remain=12 fifo_count=4 read_index=1029 write_index=2053 fifo_head=0 fifo_tail=1
# 395000: DMA stall - FIFO full: remain=12 fifo_count=4
# 405000: DMA BUSY state remain=12 fifo_count=4 read_index=1029 write_index=2053 fifo_head=0 fifo_tail=1
# 405000: DMA capture data=0x5a5a0004 for pending_write_addr=2052 (mem_read_valid)
# 405000: DMA write addr=2052 data=0x5a5a0004 remain=12 (using pending_write_fifo)
# 405000: DMA stall - FIFO full: remain=12 fifo_count=4
# 415000: MEM_MODEL write addr=2052 data=0x5a5a0004
# 415000: DMA BUSY state remain=11 fifo_count=3 read_index=1029 write_index=2053 fifo_head=1 fifo_tail=1
# 415000: DMA issue read addr=1029 pending_fifo_tail=1 remain=11
# 425000: MEM_MODEL read_en addr=1029 -> sampled=0x5a5a0005
# 425000: DMA BUSY state remain=11 fifo_count=4 read_index=1030 write_index=2054 fifo_head=1 fifo_tail=2
# 425000: DMA stall - FIFO full: remain=11 fifo_count=4
# 435000: DMA BUSY state remain=11 fifo_count=4 read_index=1030 write_index=2054 fifo_head=1 fifo_tail=2
# 435000: DMA capture data=0x5a5a0005 for pending_write_addr=2053 (mem_read_valid)
# 435000: DMA write addr=2053 data=0x5a5a0005 remain=11 (using pending_write_fifo)
# 435000: DMA stall - FIFO full: remain=11 fifo_count=4
# 445000: MEM_MODEL write addr=2053 data=0x5a5a0005
# 445000: DMA BUSY state remain=10 fifo_count=3 read_index=1030 write_index=2054 fifo_head=2 fifo_tail=2
# 445000: DMA issue read addr=1030 pending_fifo_tail=2 remain=10
# 455000: MEM_MODEL read_en addr=1030 -> sampled=0x5a5a0006
# 455000: DMA BUSY state remain=10 fifo_count=4 read_index=1031 write_index=2055 fifo_head=2 fifo_tail=3
# 455000: DMA stall - FIFO full: remain=10 fifo_count=4
# 465000: DMA BUSY state remain=10 fifo_count=4 read_index=1031 write_index=2055 fifo_head=2 fifo_tail=3
# 465000: DMA capture data=0x5a5a0006 for pending_write_addr=2054 (mem_read_valid)
# 465000: DMA write addr=2054 data=0x5a5a0006 remain=10 (using pending_write_fifo)
# 465000: DMA stall - FIFO full: remain=10 fifo_count=4
# 475000: MEM_MODEL write addr=2054 data=0x5a5a0006
# 475000: DMA BUSY state remain=9 fifo_count=3 read_index=1031 write_index=2055 fifo_head=3 fifo_tail=3
# 475000: DMA issue read addr=1031 pending_fifo_tail=3 remain=9
# 485000: MEM_MODEL read_en addr=1031 -> sampled=0x5a5a0007
# 485000: DMA BUSY state remain=9 fifo_count=4 read_index=1032 write_index=2056 fifo_head=3 fifo_tail=0
# 485000: DMA stall - FIFO full: remain=9 fifo_count=4
# 495000: DMA BUSY state remain=9 fifo_count=4 read_index=1032 write_index=2056 fifo_head=3 fifo_tail=0
# 495000: DMA capture data=0x5a5a0007 for pending_write_addr=2055 (mem_read_valid)
# 495000: DMA write addr=2055 data=0x5a5a0007 remain=9 (using pending_write_fifo)
# 495000: DMA stall - FIFO full: remain=9 fifo_count=4
# 505000: MEM_MODEL write addr=2055 data=0x5a5a0007
# 505000: DMA BUSY state remain=8 fifo_count=3 read_index=1032 write_index=2056 fifo_head=0 fifo_tail=0
# 505000: DMA issue read addr=1032 pending_fifo_tail=0 remain=8
# 515000: MEM_MODEL read_en addr=1032 -> sampled=0x5a5a0008
# 515000: DMA BUSY state remain=8 fifo_count=4 read_index=1033 write_index=2057 fifo_head=0 fifo_tail=1
# 515000: DMA stall - FIFO full: remain=8 fifo_count=4
# 525000: DMA BUSY state remain=8 fifo_count=4 read_index=1033 write_index=2057 fifo_head=0 fifo_tail=1
# 525000: DMA capture data=0x5a5a0008 for pending_write_addr=2056 (mem_read_valid)
# 525000: DMA write addr=2056 data=0x5a5a0008 remain=8 (using pending_write_fifo)
# 525000: DMA stall - FIFO full: remain=8 fifo_count=4
# 535000: MEM_MODEL write addr=2056 data=0x5a5a0008
# 535000: DMA BUSY state remain=7 fifo_count=3 read_index=1033 write_index=2057 fifo_head=1 fifo_tail=1
# 535000: DMA issue read addr=1033 pending_fifo_tail=1 remain=7
# 545000: MEM_MODEL read_en addr=1033 -> sampled=0x5a5a0009
# 545000: DMA BUSY state remain=7 fifo_count=4 read_index=1034 write_index=2058 fifo_head=1 fifo_tail=2
# 545000: DMA stall - FIFO full: remain=7 fifo_count=4
# 555000: DMA BUSY state remain=7 fifo_count=4 read_index=1034 write_index=2058 fifo_head=1 fifo_tail=2
# 555000: DMA capture data=0x5a5a0009 for pending_write_addr=2057 (mem_read_valid)
# 555000: DMA write addr=2057 data=0x5a5a0009 remain=7 (using pending_write_fifo)
# 555000: DMA stall - FIFO full: remain=7 fifo_count=4
# 565000: MEM_MODEL write addr=2057 data=0x5a5a0009
# 565000: DMA BUSY state remain=6 fifo_count=3 read_index=1034 write_index=2058 fifo_head=2 fifo_tail=2
# 565000: DMA issue read addr=1034 pending_fifo_tail=2 remain=6
# 575000: MEM_MODEL read_en addr=1034 -> sampled=0x5a5a000a
# 575000: DMA BUSY state remain=6 fifo_count=4 read_index=1035 write_index=2059 fifo_head=2 fifo_tail=3
# 575000: DMA stall - FIFO full: remain=6 fifo_count=4
# 585000: DMA BUSY state remain=6 fifo_count=4 read_index=1035 write_index=2059 fifo_head=2 fifo_tail=3
# 585000: DMA capture data=0x5a5a000a for pending_write_addr=2058 (mem_read_valid)
# 585000: DMA write addr=2058 data=0x5a5a000a remain=6 (using pending_write_fifo)
# 585000: DMA stall - FIFO full: remain=6 fifo_count=4
# 595000: MEM_MODEL write addr=2058 data=0x5a5a000a
# 595000: DMA BUSY state remain=5 fifo_count=3 read_index=1035 write_index=2059 fifo_head=3 fifo_tail=3
# 595000: DMA issue read addr=1035 pending_fifo_tail=3 remain=5
# 605000: MEM_MODEL read_en addr=1035 -> sampled=0x5a5a000b
# 605000: DMA BUSY state remain=5 fifo_count=4 read_index=1036 write_index=2060 fifo_head=3 fifo_tail=0
# 605000: DMA stall - FIFO full: remain=5 fifo_count=4
# 615000: DMA BUSY state remain=5 fifo_count=4 read_index=1036 write_index=2060 fifo_head=3 fifo_tail=0
# 615000: DMA capture data=0x5a5a000b for pending_write_addr=2059 (mem_read_valid)
# 615000: DMA write addr=2059 data=0x5a5a000b remain=5 (using pending_write_fifo)
# 615000: DMA stall - FIFO full: remain=5 fifo_count=4
# 625000: MEM_MODEL write addr=2059 data=0x5a5a000b
# 625000: DMA BUSY state remain=4 fifo_count=3 read_index=1036 write_index=2060 fifo_head=0 fifo_tail=0
# 625000: DMA issue read addr=1036 pending_fifo_tail=0 remain=4
# 635000: MEM_MODEL read_en addr=1036 -> sampled=0x5a5a000c
# 635000: DMA BUSY state remain=4 fifo_count=4 read_index=1037 write_index=2061 fifo_head=0 fifo_tail=1
# 635000: DMA stall - FIFO full: remain=4 fifo_count=4
# 645000: DMA BUSY state remain=4 fifo_count=4 read_index=1037 write_index=2061 fifo_head=0 fifo_tail=1
# 645000: DMA capture data=0x5a5a000c for pending_write_addr=2060 (mem_read_valid)
# 645000: DMA write addr=2060 data=0x5a5a000c remain=4 (using pending_write_fifo)
# 645000: DMA stall - FIFO full: remain=4 fifo_count=4
# 655000: MEM_MODEL write addr=2060 data=0x5a5a000c
# 655000: DMA BUSY state remain=3 fifo_count=3 read_index=1037 write_index=2061 fifo_head=1 fifo_tail=1
# 655000: DMA issue read addr=1037 pending_fifo_tail=1 remain=3
# 665000: MEM_MODEL read_en addr=1037 -> sampled=0x5a5a000d
# 665000: DMA BUSY state remain=3 fifo_count=4 read_index=1038 write_index=2062 fifo_head=1 fifo_tail=2
# 665000: DMA stall - FIFO full: remain=3 fifo_count=4
# 675000: DMA BUSY state remain=3 fifo_count=4 read_index=1038 write_index=2062 fifo_head=1 fifo_tail=2
# 675000: DMA capture data=0x5a5a000d for pending_write_addr=2061 (mem_read_valid)
# 675000: DMA write addr=2061 data=0x5a5a000d remain=3 (using pending_write_fifo)
# 675000: DMA stall - FIFO full: remain=3 fifo_count=4
# 685000: MEM_MODEL write addr=2061 data=0x5a5a000d
# 685000: DMA BUSY state remain=2 fifo_count=3 read_index=1038 write_index=2062 fifo_head=2 fifo_tail=2
# 685000: DMA issue read addr=1038 pending_fifo_tail=2 remain=2
# 695000: MEM_MODEL read_en addr=1038 -> sampled=0x5a5a000e
# 695000: DMA BUSY state remain=2 fifo_count=4 read_index=1039 write_index=2063 fifo_head=2 fifo_tail=3
# 695000: DMA stall - FIFO full: remain=2 fifo_count=4
# 705000: DMA BUSY state remain=2 fifo_count=4 read_index=1039 write_index=2063 fifo_head=2 fifo_tail=3
# 705000: DMA capture data=0x5a5a000e for pending_write_addr=2062 (mem_read_valid)
# 705000: DMA write addr=2062 data=0x5a5a000e remain=2 (using pending_write_fifo)
# 705000: DMA stall - FIFO full: remain=2 fifo_count=4
# 715000: MEM_MODEL write addr=2062 data=0x5a5a000e
# 715000: DMA BUSY state remain=1 fifo_count=3 read_index=1039 write_index=2063 fifo_head=3 fifo_tail=3
# 715000: DMA issue read addr=1039 pending_fifo_tail=3 remain=1
# 725000: MEM_MODEL read_en addr=1039 -> sampled=0x5a5a000f
# 725000: DMA BUSY state remain=1 fifo_count=4 read_index=1040 write_index=2064 fifo_head=3 fifo_tail=0
# 725000: DMA stall - FIFO full: remain=1 fifo_count=4
# 735000: DMA BUSY state remain=1 fifo_count=4 read_index=1040 write_index=2064 fifo_head=3 fifo_tail=0
# 735000: DMA capture data=0x5a5a000f for pending_write_addr=2063 (mem_read_valid)
# 735000: DMA write addr=2063 data=0x5a5a000f remain=1 (using pending_write_fifo)
# 735000: DMA stall - FIFO full: remain=1 fifo_count=4
# 745000: MEM_MODEL write addr=2063 data=0x5a5a000f
# CASE PASS: src=0x00001000 dst=0x00002000 words=16
# TOP: cfg write SRC_LO=0x00001000 at 795000
# TOP: cfg write SRC_HI=0x00000000 at 815000
# TOP: cfg write DST_LO=0x00002000 at 835000
# TOP: cfg write DST_HI=0x00000000 at 855000
# TOP: cfg write LEN=0x00000000 at 875000
# TB: program start src=0x00001000 dst=0x00002000 words=0
# TOP: cfg write START=1 at 895000
# 905000: DMA sampled start=1 state=0 src_res=1 dst_res=1
# 905000: DMA IDLE saw start src_addr=0x00001000 dst_addr=0x00002000 len=0 desc_mode=x
# TOP: cfg write START=1 at 915000
# 925000: DMA sampled start=1 state=0 src_res=1 dst_res=1
# 925000: DMA IDLE saw start src_addr=0x00001000 dst_addr=0x00002000 len=0 desc_mode=x
# CASE PASS: src=0x00001000 dst=0x00002000 words=0
# TOP: cfg write SRC_LO=0x00001004 at 985000
# TOP: cfg write SRC_HI=0x00000000 at 1005000
# TOP: cfg write DST_LO=0x00002008 at 1025000
# TOP: cfg write DST_HI=0x00000000 at 1045000
# TOP: cfg write LEN=0x00000001 at 1065000
# TB: program start src=0x00001004 dst=0x00002008 words=1
# TOP: cfg write START=1 at 1085000
# 1095000: DMA sampled start=1 state=0 src_res=1 dst_res=1
# 1095000: DMA IDLE saw start src_addr=0x00001004 dst_addr=0x00002008 len=1 desc_mode=x
# TOP: cfg write START=1 at 1105000
# 1105000: DMA BUSY state remain=1 fifo_count=0 read_index=1025 write_index=2050 fifo_head=0 fifo_tail=0
# 1105000: DMA issue read addr=1025 pending_fifo_tail=0 remain=1
# 1115000: MEM_MODEL read_en addr=1025 -> sampled=0x5a5a0000
# 1115000: DMA sampled start=1 state=2 src_res=1 dst_res=1
# 1115000: DMA BUSY state remain=1 fifo_count=1 read_index=1026 write_index=2051 fifo_head=0 fifo_tail=1
# 1115000: DMA issue read addr=1026 pending_fifo_tail=1 remain=1
# 1125000: MEM_MODEL read_en addr=1026 -> sampled=0x5a5a0002
# 1125000: DMA BUSY state remain=1 fifo_count=2 read_index=1027 write_index=2052 fifo_head=0 fifo_tail=2
# 1125000: DMA capture data=0x5a5a0000 for pending_write_addr=2050 (mem_read_valid)
# 1125000: DMA write addr=2050 data=0x5a5a0000 remain=1 (using pending_write_fifo)
# 1125000: DMA issue read addr=1027 pending_fifo_tail=2 remain=1
# 1135000: MEM_MODEL write addr=2050 data=0x5a5a0000
# 1135000: MEM_MODEL read_en addr=1027 -> sampled=0x5a5a0003
# CASE PASS: src=0x00001004 dst=0x00002008 words=1
# TOP: cfg write SRC_LO=0x00001103 at 1175000
# TOP: cfg write SRC_HI=0x00000000 at 1195000
# TOP: cfg write DST_LO=0x00002107 at 1215000
# TOP: cfg write DST_HI=0x00000000 at 1235000
# TOP: cfg write LEN=0x00000008 at 1255000
# TB: program start src=0x00001103 dst=0x00002107 words=8
# TOP: cfg write START=1 at 1275000
# 1285000: DMA sampled start=1 state=0 src_res=1 dst_res=1
# 1285000: DMA IDLE saw start src_addr=0x00001103 dst_addr=0x00002107 len=8 desc_mode=x
# TOP: cfg write START=1 at 1295000
# 1295000: DMA BUSY state remain=8 fifo_count=0 read_index=1088 write_index=2113 fifo_head=0 fifo_tail=0
# 1295000: DMA issue read addr=1088 pending_fifo_tail=0 remain=8
# 1305000: MEM_MODEL read_en addr=1088 -> sampled=0x5a5a0000
# 1305000: DMA sampled start=1 state=2 src_res=1 dst_res=1
# 1305000: DMA BUSY state remain=8 fifo_count=1 read_index=1089 write_index=2114 fifo_head=0 fifo_tail=1
# 1305000: DMA issue read addr=1089 pending_fifo_tail=1 remain=8
# 1315000: MEM_MODEL read_en addr=1089 -> sampled=0x5a5a0001
# 1315000: DMA BUSY state remain=8 fifo_count=2 read_index=1090 write_index=2115 fifo_head=0 fifo_tail=2
# 1315000: DMA capture data=0x5a5a0000 for pending_write_addr=2113 (mem_read_valid)
# 1315000: DMA write addr=2113 data=0x5a5a0000 remain=8 (using pending_write_fifo)
# 1315000: DMA issue read addr=1090 pending_fifo_tail=2 remain=8
# 1325000: MEM_MODEL write addr=2113 data=0x5a5a0000
# 1325000: MEM_MODEL read_en addr=1090 -> sampled=0x5a5a0002
# 1325000: DMA BUSY state remain=7 fifo_count=3 read_index=1091 write_index=2116 fifo_head=1 fifo_tail=3
# 1325000: DMA capture data=0x5a5a0001 for pending_write_addr=2114 (mem_read_valid)
# 1325000: DMA write addr=2114 data=0x5a5a0001 remain=7 (using pending_write_fifo)
# 1325000: DMA issue read addr=1091 pending_fifo_tail=3 remain=7
# 1335000: MEM_MODEL write addr=2114 data=0x5a5a0001
# 1335000: MEM_MODEL read_en addr=1091 -> sampled=0x5a5a0003
# 1335000: DMA BUSY state remain=6 fifo_count=4 read_index=1092 write_index=2117 fifo_head=2 fifo_tail=0
# 1335000: DMA capture data=0x5a5a0002 for pending_write_addr=2115 (mem_read_valid)
# 1335000: DMA write addr=2115 data=0x5a5a0002 remain=6 (using pending_write_fifo)
# 1335000: DMA stall - FIFO full: remain=6 fifo_count=4
# 1345000: MEM_MODEL write addr=2115 data=0x5a5a0002
# 1345000: DMA BUSY state remain=5 fifo_count=3 read_index=1092 write_index=2117 fifo_head=3 fifo_tail=0
# 1345000: DMA capture data=0x5a5a0003 for pending_write_addr=2116 (mem_read_valid)
# 1345000: DMA write addr=2116 data=0x5a5a0003 remain=5 (using pending_write_fifo)
# 1345000: DMA issue read addr=1092 pending_fifo_tail=0 remain=5
# 1355000: MEM_MODEL write addr=2116 data=0x5a5a0003
# 1355000: MEM_MODEL read_en addr=1092 -> sampled=0x5a5a0004
# 1355000: DMA BUSY state remain=4 fifo_count=4 read_index=1093 write_index=2118 fifo_head=0 fifo_tail=1
# 1355000: DMA stall - FIFO full: remain=4 fifo_count=4
# 1365000: DMA BUSY state remain=4 fifo_count=4 read_index=1093 write_index=2118 fifo_head=0 fifo_tail=1
# 1365000: DMA capture data=0x5a5a0004 for pending_write_addr=2117 (mem_read_valid)
# 1365000: DMA write addr=2117 data=0x5a5a0004 remain=4 (using pending_write_fifo)
# 1365000: DMA stall - FIFO full: remain=4 fifo_count=4
# 1375000: MEM_MODEL write addr=2117 data=0x5a5a0004
# 1375000: DMA BUSY state remain=3 fifo_count=3 read_index=1093 write_index=2118 fifo_head=1 fifo_tail=1
# 1375000: DMA issue read addr=1093 pending_fifo_tail=1 remain=3
# 1385000: MEM_MODEL read_en addr=1093 -> sampled=0x5a5a0005
# 1385000: DMA BUSY state remain=3 fifo_count=4 read_index=1094 write_index=2119 fifo_head=1 fifo_tail=2
# 1385000: DMA stall - FIFO full: remain=3 fifo_count=4
# 1395000: DMA BUSY state remain=3 fifo_count=4 read_index=1094 write_index=2119 fifo_head=1 fifo_tail=2
# 1395000: DMA capture data=0x5a5a0005 for pending_write_addr=2118 (mem_read_valid)
# 1395000: DMA write addr=2118 data=0x5a5a0005 remain=3 (using pending_write_fifo)
# 1395000: DMA stall - FIFO full: remain=3 fifo_count=4
# 1405000: MEM_MODEL write addr=2118 data=0x5a5a0005
# 1405000: DMA BUSY state remain=2 fifo_count=3 read_index=1094 write_index=2119 fifo_head=2 fifo_tail=2
# 1405000: DMA issue read addr=1094 pending_fifo_tail=2 remain=2
# 1415000: MEM_MODEL read_en addr=1094 -> sampled=0x5a5a0006
# 1415000: DMA BUSY state remain=2 fifo_count=4 read_index=1095 write_index=2120 fifo_head=2 fifo_tail=3
# 1415000: DMA stall - FIFO full: remain=2 fifo_count=4
# 1425000: DMA BUSY state remain=2 fifo_count=4 read_index=1095 write_index=2120 fifo_head=2 fifo_tail=3
# 1425000: DMA capture data=0x5a5a0006 for pending_write_addr=2119 (mem_read_valid)
# 1425000: DMA write addr=2119 data=0x5a5a0006 remain=2 (using pending_write_fifo)
# 1425000: DMA stall - FIFO full: remain=2 fifo_count=4
# 1435000: MEM_MODEL write addr=2119 data=0x5a5a0006
# 1435000: DMA BUSY state remain=1 fifo_count=3 read_index=1095 write_index=2120 fifo_head=3 fifo_tail=3
# 1435000: DMA issue read addr=1095 pending_fifo_tail=3 remain=1
# 1445000: MEM_MODEL read_en addr=1095 -> sampled=0x5a5a0007
# 1445000: DMA BUSY state remain=1 fifo_count=4 read_index=1096 write_index=2121 fifo_head=3 fifo_tail=0
# 1445000: DMA stall - FIFO full: remain=1 fifo_count=4
# 1455000: DMA BUSY state remain=1 fifo_count=4 read_index=1096 write_index=2121 fifo_head=3 fifo_tail=0
# 1455000: DMA capture data=0x5a5a0007 for pending_write_addr=2120 (mem_read_valid)
# 1455000: DMA write addr=2120 data=0x5a5a0007 remain=1 (using pending_write_fifo)
# 1455000: DMA stall - FIFO full: remain=1 fifo_count=4
# 1465000: MEM_MODEL write addr=2120 data=0x5a5a0007
# CASE PASS: src=0x00001103 dst=0x00002107 words=8
# TOP: cfg write SRC_LO=0x00003000 at 1515000
# TOP: cfg write DST_LO=0x00004000 at 1535000
# TOP: cfg write LEN=0x00000020 at 1555000
# TOP: cfg write START=1 at 1575000
# 1585000: DMA sampled start=1 state=0 src_res=1 dst_res=1
# 1585000: DMA IDLE saw start src_addr=0x00003000 dst_addr=0x00004000 len=32 desc_mode=x
# TOP: cfg write START=1 at 1595000
# 1595000: DMA BUSY state remain=32 fifo_count=0 read_index=3072 write_index=4096 fifo_head=0 fifo_tail=0
# 1595000: DMA issue read addr=3072 pending_fifo_tail=0 remain=32
# 1605000: MEM_MODEL read_en addr=3072 -> sampled=0xc3c30000
# 1605000: DMA sampled start=1 state=2 src_res=1 dst_res=1
# 1605000: DMA BUSY state remain=32 fifo_count=1 read_index=3073 write_index=4097 fifo_head=0 fifo_tail=1
# 1605000: DMA issue read addr=3073 pending_fifo_tail=1 remain=32
# 1615000: MEM_MODEL read_en addr=3073 -> sampled=0xc3c30001
# 1615000: DMA BUSY state remain=32 fifo_count=2 read_index=3074 write_index=4098 fifo_head=0 fifo_tail=2
# 1615000: DMA capture data=0xc3c30000 for pending_write_addr=4096 (mem_read_valid)
# 1615000: DMA write addr=4096 data=0xc3c30000 remain=32 (using pending_write_fifo)
# 1615000: DMA issue read addr=3074 pending_fifo_tail=2 remain=32
# 1625000: MEM_MODEL write addr=4096 data=0xc3c30000
# 1625000: MEM_MODEL read_en addr=3074 -> sampled=0xc3c30002
# 1625000: DMA BUSY state remain=31 fifo_count=3 read_index=3075 write_index=4099 fifo_head=1 fifo_tail=3
# 1625000: DMA capture data=0xc3c30001 for pending_write_addr=4097 (mem_read_valid)
# 1625000: DMA write addr=4097 data=0xc3c30001 remain=31 (using pending_write_fifo)
# 1625000: DMA issue read addr=3075 pending_fifo_tail=3 remain=31
# 1635000: MEM_MODEL write addr=4097 data=0xc3c30001
# 1635000: MEM_MODEL read_en addr=3075 -> sampled=0xc3c30003
# 1635000: DMA BUSY state remain=30 fifo_count=4 read_index=3076 write_index=4100 fifo_head=2 fifo_tail=0
# 1635000: DMA capture data=0xc3c30002 for pending_write_addr=4098 (mem_read_valid)
# 1635000: DMA write addr=4098 data=0xc3c30002 remain=30 (using pending_write_fifo)
# 1635000: DMA stall - FIFO full: remain=30 fifo_count=4
# 1645000: MEM_MODEL write addr=4098 data=0xc3c30002
# 1645000: DMA BUSY state remain=29 fifo_count=3 read_index=3076 write_index=4100 fifo_head=3 fifo_tail=0
# 1645000: DMA capture data=0xc3c30003 for pending_write_addr=4099 (mem_read_valid)
# 1645000: DMA write addr=4099 data=0xc3c30003 remain=29 (using pending_write_fifo)
# 1645000: DMA issue read addr=3076 pending_fifo_tail=0 remain=29
# 1655000: MEM_MODEL write addr=4099 data=0xc3c30003
# 1655000: MEM_MODEL read_en addr=3076 -> sampled=0xc3c30004
# 1655000: DMA BUSY state remain=28 fifo_count=4 read_index=3077 write_index=4101 fifo_head=0 fifo_tail=1
# 1655000: DMA stall - FIFO full: remain=28 fifo_count=4
# 1665000: DMA BUSY state remain=28 fifo_count=4 read_index=3077 write_index=4101 fifo_head=0 fifo_tail=1
# 1665000: DMA capture data=0xc3c30004 for pending_write_addr=4100 (mem_read_valid)
# 1665000: DMA write addr=4100 data=0xc3c30004 remain=28 (using pending_write_fifo)
# 1665000: DMA stall - FIFO full: remain=28 fifo_count=4
# 1675000: MEM_MODEL write addr=4100 data=0xc3c30004
# 1675000: DMA BUSY state remain=27 fifo_count=3 read_index=3077 write_index=4101 fifo_head=1 fifo_tail=1
# 1675000: DMA issue read addr=3077 pending_fifo_tail=1 remain=27
# 1685000: MEM_MODEL read_en addr=3077 -> sampled=0xc3c30005
# 1685000: DMA BUSY state remain=27 fifo_count=4 read_index=3078 write_index=4102 fifo_head=1 fifo_tail=2
# 1685000: DMA stall - FIFO full: remain=27 fifo_count=4
# 1695000: DMA BUSY state remain=27 fifo_count=4 read_index=3078 write_index=4102 fifo_head=1 fifo_tail=2
# 1695000: DMA capture data=0xc3c30005 for pending_write_addr=4101 (mem_read_valid)
# 1695000: DMA write addr=4101 data=0xc3c30005 remain=27 (using pending_write_fifo)
# 1695000: DMA stall - FIFO full: remain=27 fifo_count=4
# 1705000: MEM_MODEL write addr=4101 data=0xc3c30005
# 1705000: DMA BUSY state remain=26 fifo_count=3 read_index=3078 write_index=4102 fifo_head=2 fifo_tail=2
# 1705000: DMA issue read addr=3078 pending_fifo_tail=2 remain=26
# 1715000: MEM_MODEL read_en addr=3078 -> sampled=0xc3c30006
# 1715000: DMA BUSY state remain=26 fifo_count=4 read_index=3079 write_index=4103 fifo_head=2 fifo_tail=3
# 1715000: DMA stall - FIFO full: remain=26 fifo_count=4
# 1725000: DMA BUSY state remain=26 fifo_count=4 read_index=3079 write_index=4103 fifo_head=2 fifo_tail=3
# 1725000: DMA capture data=0xc3c30006 for pending_write_addr=4102 (mem_read_valid)
# 1725000: DMA write addr=4102 data=0xc3c30006 remain=26 (using pending_write_fifo)
# 1725000: DMA stall - FIFO full: remain=26 fifo_count=4
# 1735000: MEM_MODEL write addr=4102 data=0xc3c30006
# 1735000: DMA BUSY state remain=25 fifo_count=3 read_index=3079 write_index=4103 fifo_head=3 fifo_tail=3
# 1735000: DMA issue read addr=3079 pending_fifo_tail=3 remain=25
# 1745000: MEM_MODEL read_en addr=3079 -> sampled=0xc3c30007
# 1745000: DMA BUSY state remain=25 fifo_count=4 read_index=3080 write_index=4104 fifo_head=3 fifo_tail=0
# 1745000: DMA stall - FIFO full: remain=25 fifo_count=4
# 1755000: DMA BUSY state remain=25 fifo_count=4 read_index=3080 write_index=4104 fifo_head=3 fifo_tail=0
# 1755000: DMA capture data=0xc3c30007 for pending_write_addr=4103 (mem_read_valid)
# 1755000: DMA write addr=4103 data=0xc3c30007 remain=25 (using pending_write_fifo)
# 1755000: DMA stall - FIFO full: remain=25 fifo_count=4
# 1765000: MEM_MODEL write addr=4103 data=0xc3c30007
# 1765000: DMA BUSY state remain=24 fifo_count=3 read_index=3080 write_index=4104 fifo_head=0 fifo_tail=0
# 1765000: DMA issue read addr=3080 pending_fifo_tail=0 remain=24
# 1775000: MEM_MODEL read_en addr=3080 -> sampled=0xc3c30008
# 1775000: DMA BUSY state remain=24 fifo_count=4 read_index=3081 write_index=4105 fifo_head=0 fifo_tail=1
# 1775000: DMA stall - FIFO full: remain=24 fifo_count=4
# 1785000: DMA BUSY state remain=24 fifo_count=4 read_index=3081 write_index=4105 fifo_head=0 fifo_tail=1
# 1785000: DMA capture data=0xc3c30008 for pending_write_addr=4104 (mem_read_valid)
# 1785000: DMA write addr=4104 data=0xc3c30008 remain=24 (using pending_write_fifo)
# 1785000: DMA stall - FIFO full: remain=24 fifo_count=4
# 1795000: MEM_MODEL write addr=4104 data=0xc3c30008
# 1795000: DMA BUSY state remain=23 fifo_count=3 read_index=3081 write_index=4105 fifo_head=1 fifo_tail=1
# 1795000: DMA issue read addr=3081 pending_fifo_tail=1 remain=23
# 1805000: MEM_MODEL read_en addr=3081 -> sampled=0xc3c30009
# 1805000: DMA BUSY state remain=23 fifo_count=4 read_index=3082 write_index=4106 fifo_head=1 fifo_tail=2
